C4,Murder
C7,Attempted Murder
C10,Culpable Homicide
C16,Rape (All)
C19,Rape (Custodial)
C28,Rape (Others)
C40,Kidnapping
C58,Dacoity
C67,Preparing for Dacoity
C70,Robbery
C73,Burglary / Criminal Trespass
C82,Theft (All)
C85,Theft (Auto)
C88,Theft (Others)
C94,Riots
C127,Criminal Breach of Trust
C130,Cheating
C136,Counterfeiting
C163,Arson
C166,Grievous Hurt
C178,Dowry Deaths
C181,Intent to Outrage Modesty of Woman
C199,Insult to Modesty of Women
D4,Cruelty by Husband
D7,Female Trafficing (Abroad)
D10,Death by Negligence
